{
  "a": [
    -0.39999999999999947,
    -0.3499999999999994,
    -0.2999999999999994,
    -0.24999999999999933,
    -0.1999999999999993,
    -0.14999999999999925,
    -0.0999999999999992,
    -0.049999999999999156,
    0.02,
    0.04,
    0.06,
    0.08,
    0.1,
    0.12000000000000001,
    0.13999999999999999,
    0.16
  ],
  "b": [
    1,
    1,
    1,
    1,
    1,
    1,
    1,
    1,
    2,
    2,
    2,
    2,
    2,
    2,
    2,
    2
  ],
  "bt": [
    0.21816203673296924,
    0.24269771019220737,
    0.27654165366782646,
    0.32523465877542296,
    0.39986011844634517,
    0.5262869881689203,
    0.7821390307353714,
    1.5555757607225655,
    1.7218043680938444,
    0.8614449571796557,
    0.5749001642071503,
    0.4318095259109022,
    0.3461011093005956,
    0.2890844027433857,
    0.24846358600292962,
    0.21809084762871003
  ]
}